+----------------------------------------------------------+
| HISTOGRAM Incoming orders                                |
+----------------------------------------------------------+
| STATISTIC                                                |
+----------------------------------------------------------+
|  Min = 0                       Max = 78572.3             |
|  Number of records = 38                                  |
|  Average value = 30165.2                                 |
+----------------------------------------------------------+
|    from    |     to     |     n    |   rel    |   sum    |
+------------+------------+----------+----------+----------+
|      0.000 |   3600.000 |        4 | 0.105263 | 0.105263 |
|   3600.000 |   7200.000 |        3 | 0.078947 | 0.184211 |
|   7200.000 |  10800.000 |        4 | 0.105263 | 0.289474 |
|  10800.000 |  14400.000 |        4 | 0.105263 | 0.394737 |
|  14400.000 |  18000.000 |        2 | 0.052632 | 0.447368 |
|  18000.000 |  21600.000 |        2 | 0.052632 | 0.500000 |
|  21600.000 |  25200.000 |        1 | 0.026316 | 0.526316 |
|  25200.000 |  28800.000 |        1 | 0.026316 | 0.552632 |
|  28800.000 |  32400.000 |        1 | 0.026316 | 0.578947 |
|  32400.000 |  36000.000 |        2 | 0.052632 | 0.631579 |
|  36000.000 |  39600.000 |        1 | 0.026316 | 0.657895 |
|  39600.000 |  43200.000 |        1 | 0.026316 | 0.684211 |
|  43200.000 |  46800.000 |        1 | 0.026316 | 0.710526 |
|  46800.000 |  50400.000 |        1 | 0.026316 | 0.736842 |
|  50400.000 |  54000.000 |        0 | 0.000000 | 0.736842 |
|  54000.000 |  57600.000 |        2 | 0.052632 | 0.789474 |
|  57600.000 |  61200.000 |        2 | 0.052632 | 0.842105 |
|  61200.000 |  64800.000 |        1 | 0.026316 | 0.868421 |
|  64800.000 |  68400.000 |        1 | 0.026316 | 0.894737 |
|  68400.000 |  72000.000 |        1 | 0.026316 | 0.921053 |
|  72000.000 |  75600.000 |        2 | 0.052632 | 0.973684 |
|  75600.000 |  79200.000 |        1 | 0.026316 | 1.000000 |
|  79200.000 |  82800.000 |        0 | 0.000000 | 1.000000 |
|  82800.000 |  86400.000 |        0 | 0.000000 | 1.000000 |
+------------+------------+----------+----------+----------+

+----------------------------------------------------------+
| FACILITY Mixer                                           |
+----------------------------------------------------------+
|  Status = BUSY                                           |
|  Time interval = 0 - 86400                               |
|  Number of requests = 35                                 |
|  Average utilization = 1                                 |
+----------------------------------------------------------+
  Input queue 'Mixer.Q1'
+----------------------------------------------------------+
| QUEUE Q1                                                 |
+----------------------------------------------------------+
|  Time interval = 0 - 86400                               |
|  Incoming  38                                            |
|  Outcoming  34                                           |
|  Current length = 4                                      |
|  Maximal length = 17                                     |
|  Average length = 10.6638                                |
|  Minimal time = 180.403                                  |
|  Maximal time = 68349.1                                  |
|  Average time = 24717.8                                  |
+----------------------------------------------------------+

+----------------------------------------------------------+
| HISTOGRAM MixHist                                        |
+----------------------------------------------------------+
| STATISTIC                                                |
+----------------------------------------------------------+
|  Min = 912.755                 Max = 1009.29             |
|  Number of records = 71                                  |
|  Average value = 958.47                                  |
+----------------------------------------------------------+
|    from    |     to     |     n    |   rel    |   sum    |
+------------+------------+----------+----------+----------+
|      0.000 |    100.000 |        0 | 0.000000 | 0.000000 |
|    100.000 |    200.000 |        0 | 0.000000 | 0.000000 |
|    200.000 |    300.000 |        0 | 0.000000 | 0.000000 |
|    300.000 |    400.000 |        0 | 0.000000 | 0.000000 |
|    400.000 |    500.000 |        0 | 0.000000 | 0.000000 |
|    500.000 |    600.000 |        0 | 0.000000 | 0.000000 |
|    600.000 |    700.000 |        0 | 0.000000 | 0.000000 |
|    700.000 |    800.000 |        0 | 0.000000 | 0.000000 |
|    800.000 |    900.000 |        0 | 0.000000 | 0.000000 |
|    900.000 |   1000.000 |       70 | 0.985915 | 0.985915 |
|   1000.000 |   1100.000 |        1 | 0.014085 | 1.000000 |
|   1100.000 |   1200.000 |        0 | 0.000000 | 1.000000 |
|   1200.000 |   1300.000 |        0 | 0.000000 | 1.000000 |
|   1300.000 |   1400.000 |        0 | 0.000000 | 1.000000 |
|   1400.000 |   1500.000 |        0 | 0.000000 | 1.000000 |
|   1500.000 |   1600.000 |        0 | 0.000000 | 1.000000 |
|   1600.000 |   1700.000 |        0 | 0.000000 | 1.000000 |
|   1700.000 |   1800.000 |        0 | 0.000000 | 1.000000 |
|   1800.000 |   1900.000 |        0 | 0.000000 | 1.000000 |
|   1900.000 |   2000.000 |        0 | 0.000000 | 1.000000 |
+------------+------------+----------+----------+----------+

+----------------------------------------------------------+
| FACILITY Divider                                         |
+----------------------------------------------------------+
|  Status = BUSY                                           |
|  Time interval = 0 - 86400                               |
|  Number of requests = 37                                 |
|  Average utilization = 0.780621                          |
+----------------------------------------------------------+
  Input queue 'Divider.Q1'
+----------------------------------------------------------+
| QUEUE Q1                                                 |
+----------------------------------------------------------+
|  Time interval = 0 - 86400                               |
|  Incoming  70                                            |
|  Outcoming  36                                           |
|  Current length = 34                                     |
|  Maximal length = 34                                     |
|  Average length = 13.1488                                |
|  Minimal time = 1663.22                                  |
|  Maximal time = 31010.5                                  |
|  Average time = 16345.3                                  |
+----------------------------------------------------------+

+----------------------------------------------------------+
| STORE ShapingMachine                                     |
+----------------------------------------------------------+
|  Capacity = 5  (5 used, 0 free)                          |
|  Time interval = 0 - 86400                               |
|  Number of Enter operations = 133828                     |
|  Minimal used capacity = 0                               |
|  Maximal used capacity = 5                               |
|  Average used capacity = 3.08618                         |
+----------------------------------------------------------+
  Input queue 'ShapingMachine.Q'
+----------------------------------------------------------+
| QUEUE Q                                                  |
+----------------------------------------------------------+
|  Time interval = 0 - 86400                               |
|  Incoming  71942                                         |
|  Outcoming  71940                                        |
|  Current length = 2                                      |
|  Maximal length = 34                                     |
|  Average length = 1.469                                  |
|  Minimal time = 8.28261e-05                              |
|  Maximal time = 13.8067                                  |
|  Average time = 1.76425                                  |
|  Standard deviation = 1.71205                            |
+----------------------------------------------------------+

+----------------------------------------------------------+
| STORE Furnace                                            |
+----------------------------------------------------------+
|  Capacity = 3000  (1524 used, 1476 free)                 |
|  Time interval = 0 - 86400                               |
|  Number of Enter operations = 129352                     |
|  Minimal used capacity = 1                               |
|  Maximal used capacity = 1551                            |
|  Average used capacity = 1116.18                         |
+----------------------------------------------------------+

+----------------------------------------------------------+
| HISTOGRAM CroissantTime                                  |
+----------------------------------------------------------+
| STATISTIC                                                |
+----------------------------------------------------------+
|  Min = 3246.82                 Max = 3724.16             |
|  Number of records = 127828                              |
|  Average value = 3488.02                                 |
|  Standard deviation = 94.7977                            |
+----------------------------------------------------------+
|    from    |     to     |     n    |   rel    |   sum    |
+------------+------------+----------+----------+----------+
|   3200.000 |   3250.000 |        1 | 0.000008 | 0.000008 |
|   3250.000 |   3300.000 |     1410 | 0.011030 | 0.011038 |
|   3300.000 |   3350.000 |     8306 | 0.064978 | 0.076016 |
|   3350.000 |   3400.000 |    16868 | 0.131959 | 0.207975 |
|   3400.000 |   3450.000 |    21092 | 0.165003 | 0.372978 |
|   3450.000 |   3500.000 |    21330 | 0.166865 | 0.539843 |
|   3500.000 |   3550.000 |    21208 | 0.165910 | 0.705753 |
|   3550.000 |   3600.000 |    20217 | 0.158158 | 0.863911 |
|   3600.000 |   3650.000 |    12818 | 0.100275 | 0.964186 |
|   3650.000 |   3700.000 |     4367 | 0.034163 | 0.998349 |
|   3700.000 |   3750.000 |      211 | 0.001651 | 1.000000 |
|   3750.000 |   3800.000 |        0 | 0.000000 | 1.000000 |
|   3800.000 |   3850.000 |        0 | 0.000000 | 1.000000 |
|   3850.000 |   3900.000 |        0 | 0.000000 | 1.000000 |
+------------+------------+----------+----------+----------+

+----------------------------------------------------------+
| HISTOGRAM Croissant done per hour                        |
+----------------------------------------------------------+
| STATISTIC                                                |
+----------------------------------------------------------+
|  Min = 22281.4                 Max = 86399.8             |
|  Number of records = 127828                              |
|  Average value = 54418.8                                 |
|  Standard deviation = 18463.7                            |
+----------------------------------------------------------+
|    from    |     to     |     n    |   rel    |   sum    |
+------------+------------+----------+----------+----------+
|      0.000 |   3600.000 |        0 | 0.000000 | 0.000000 |
|   3600.000 |   7200.000 |        0 | 0.000000 | 0.000000 |
|   7200.000 |  10800.000 |        0 | 0.000000 | 0.000000 |
|  10800.000 |  14400.000 |        0 | 0.000000 | 0.000000 |
|  14400.000 |  18000.000 |        0 | 0.000000 | 0.000000 |
|  18000.000 |  21600.000 |        0 | 0.000000 | 0.000000 |
|  21600.000 |  25200.000 |     5522 | 0.043199 | 0.043199 |
|  25200.000 |  28800.000 |     7184 | 0.056201 | 0.099399 |
|  28800.000 |  32400.000 |     7184 | 0.056201 | 0.155600 |
|  32400.000 |  36000.000 |     7209 | 0.056396 | 0.211996 |
|  36000.000 |  39600.000 |     7207 | 0.056380 | 0.268376 |
|  39600.000 |  43200.000 |     7165 | 0.056052 | 0.324428 |
|  43200.000 |  46800.000 |     7210 | 0.056404 | 0.380832 |
|  46800.000 |  50400.000 |     7207 | 0.056380 | 0.437213 |
|  50400.000 |  54000.000 |     7190 | 0.056247 | 0.493460 |
|  54000.000 |  57600.000 |     7201 | 0.056334 | 0.549793 |
|  57600.000 |  61200.000 |     7206 | 0.056373 | 0.606166 |
|  61200.000 |  64800.000 |     7180 | 0.056169 | 0.662335 |
|  64800.000 |  68400.000 |     7182 | 0.056185 | 0.718520 |
|  68400.000 |  72000.000 |     7211 | 0.056412 | 0.774932 |
|  72000.000 |  75600.000 |     7195 | 0.056287 | 0.831219 |
|  75600.000 |  79200.000 |     7189 | 0.056240 | 0.887458 |
|  79200.000 |  82800.000 |     7201 | 0.056334 | 0.943792 |
|  82800.000 |  86400.000 |     7185 | 0.056208 | 1.000000 |
+------------+------------+----------+----------+----------+

