+----------------------------------------------------------+
| HISTOGRAM Incoming orders                                |
+----------------------------------------------------------+
| STATISTIC                                                |
+----------------------------------------------------------+
|  Min = 0                       Max = 76812.6             |
|  Number of records = 39                                  |
|  Average value = 31787.7                                 |
+----------------------------------------------------------+
|    from    |     to     |     n    |   rel    |   sum    |
+------------+------------+----------+----------+----------+
|      0.000 |   3600.000 |        4 | 0.102564 | 0.102564 |
|   3600.000 |   7200.000 |        3 | 0.076923 | 0.179487 |
|   7200.000 |  10800.000 |        4 | 0.102564 | 0.282051 |
|  10800.000 |  14400.000 |        4 | 0.102564 | 0.384615 |
|  14400.000 |  18000.000 |        2 | 0.051282 | 0.435897 |
|  18000.000 |  21600.000 |        1 | 0.025641 | 0.461538 |
|  21600.000 |  25200.000 |        1 | 0.025641 | 0.487179 |
|  25200.000 |  28800.000 |        1 | 0.025641 | 0.512821 |
|  28800.000 |  32400.000 |        2 | 0.051282 | 0.564103 |
|  32400.000 |  36000.000 |        1 | 0.025641 | 0.589744 |
|  36000.000 |  39600.000 |        2 | 0.051282 | 0.641026 |
|  39600.000 |  43200.000 |        1 | 0.025641 | 0.666667 |
|  43200.000 |  46800.000 |        1 | 0.025641 | 0.692308 |
|  46800.000 |  50400.000 |        1 | 0.025641 | 0.717949 |
|  50400.000 |  54000.000 |        0 | 0.000000 | 0.717949 |
|  54000.000 |  57600.000 |        2 | 0.051282 | 0.769231 |
|  57600.000 |  61200.000 |        2 | 0.051282 | 0.820513 |
|  61200.000 |  64800.000 |        1 | 0.025641 | 0.846154 |
|  64800.000 |  68400.000 |        1 | 0.025641 | 0.871795 |
|  68400.000 |  72000.000 |        2 | 0.051282 | 0.923077 |
|  72000.000 |  75600.000 |        1 | 0.025641 | 0.948718 |
|  75600.000 |  79200.000 |        2 | 0.051282 | 1.000000 |
|  79200.000 |  82800.000 |        0 | 0.000000 | 1.000000 |
|  82800.000 |  86400.000 |        0 | 0.000000 | 1.000000 |
+------------+------------+----------+----------+----------+

+----------------------------------------------------------+
| FACILITY Mixer                                           |
+----------------------------------------------------------+
|  Status = not BUSY                                       |
|  Time interval = 0 - 86400                               |
|  Number of requests = 40                                 |
|  Average utilization = 0.63983                           |
+----------------------------------------------------------+
  Input queue 'Mixer.Q1'
+----------------------------------------------------------+
| QUEUE Q1                                                 |
+----------------------------------------------------------+
|  Time interval = 0 - 86400                               |
|  Incoming  29                                            |
|  Outcoming  29                                           |
|  Current length = 0                                      |
|  Maximal length = 17                                     |
|  Average length = 4.16425                                |
|  Minimal time = 30.9527                                  |
|  Maximal time = 27515.7                                  |
|  Average time = 12406.6                                  |
+----------------------------------------------------------+

+----------------------------------------------------------+
| HISTOGRAM MixHist                                        |
+----------------------------------------------------------+
| STATISTIC                                                |
+----------------------------------------------------------+
|  Min = 902.682                 Max = 1024                |
|  Number of records = 39                                  |
|  Average value = 955.931                                 |
+----------------------------------------------------------+
|    from    |     to     |     n    |   rel    |   sum    |
+------------+------------+----------+----------+----------+
|      0.000 |    100.000 |        0 | 0.000000 | 0.000000 |
|    100.000 |    200.000 |        0 | 0.000000 | 0.000000 |
|    200.000 |    300.000 |        0 | 0.000000 | 0.000000 |
|    300.000 |    400.000 |        0 | 0.000000 | 0.000000 |
|    400.000 |    500.000 |        0 | 0.000000 | 0.000000 |
|    500.000 |    600.000 |        0 | 0.000000 | 0.000000 |
|    600.000 |    700.000 |        0 | 0.000000 | 0.000000 |
|    700.000 |    800.000 |        0 | 0.000000 | 0.000000 |
|    800.000 |    900.000 |        0 | 0.000000 | 0.000000 |
|    900.000 |   1000.000 |       38 | 0.974359 | 0.974359 |
|   1000.000 |   1100.000 |        1 | 0.025641 | 1.000000 |
|   1100.000 |   1200.000 |        0 | 0.000000 | 1.000000 |
|   1200.000 |   1300.000 |        0 | 0.000000 | 1.000000 |
|   1300.000 |   1400.000 |        0 | 0.000000 | 1.000000 |
|   1400.000 |   1500.000 |        0 | 0.000000 | 1.000000 |
|   1500.000 |   1600.000 |        0 | 0.000000 | 1.000000 |
|   1600.000 |   1700.000 |        0 | 0.000000 | 1.000000 |
|   1700.000 |   1800.000 |        0 | 0.000000 | 1.000000 |
|   1800.000 |   1900.000 |        0 | 0.000000 | 1.000000 |
|   1900.000 |   2000.000 |        0 | 0.000000 | 1.000000 |
+------------+------------+----------+----------+----------+

+----------------------------------------------------------+
| FACILITY Divider                                         |
+----------------------------------------------------------+
|  Status = not BUSY                                       |
|  Time interval = 0 - 86400                               |
|  Number of requests = 39                                 |
|  Average utilization = 0.397153                          |
+----------------------------------------------------------+
  Input queue 'Divider.Q1'
+----------------------------------------------------------+
| QUEUE Q1                                                 |
+----------------------------------------------------------+
|  Time interval = 0 - 86400                               |
|  Incoming  16                                            |
|  Outcoming  16                                           |
|  Current length = 0                                      |
|  Maximal length = 4                                      |
|  Average length = 0.493514                               |
|  Minimal time = 557.638                                  |
|  Maximal time = 4583.49                                  |
|  Average time = 2664.98                                  |
+----------------------------------------------------------+

+----------------------------------------------------------+
| STORE ShapingMachine                                     |
+----------------------------------------------------------+
|  Capacity = 5  (0 used, 5 free)                          |
|  Time interval = 0 - 86400                               |
|  Number of Enter operations = 68474                      |
|  Minimal used capacity = 0                               |
|  Maximal used capacity = 5                               |
|  Average used capacity = 1.58461                         |
+----------------------------------------------------------+
  Input queue 'ShapingMachine.Q'
+----------------------------------------------------------+
| QUEUE Q                                                  |
+----------------------------------------------------------+
|  Time interval = 0 - 86400                               |
|  Incoming  35822                                         |
|  Outcoming  35822                                        |
|  Current length = 0                                      |
|  Maximal length = 29                                     |
|  Average length = 0.744834                               |
|  Minimal time = 0.000154854                              |
|  Maximal time = 13.7756                                  |
|  Average time = 1.79648                                  |
|  Standard deviation = 1.71784                            |
+----------------------------------------------------------+

+----------------------------------------------------------+
| STORE Furnace                                            |
+----------------------------------------------------------+
|  Capacity = 3000  (0 used, 3000 free)                    |
|  Time interval = 0 - 86400                               |
|  Number of Enter operations = 68474                      |
|  Minimal used capacity = 0                               |
|  Maximal used capacity = 1542                            |
|  Average used capacity = 594.393                         |
+----------------------------------------------------------+

+----------------------------------------------------------+
| HISTOGRAM CroissantTime                                  |
+----------------------------------------------------------+
| STATISTIC                                                |
+----------------------------------------------------------+
|  Min = 3249.77                 Max = 3724.17             |
|  Number of records = 68474                               |
|  Average value = 3487.76                                 |
|  Standard deviation = 94.4892                            |
+----------------------------------------------------------+
|    from    |     to     |     n    |   rel    |   sum    |
+------------+------------+----------+----------+----------+
|   3200.000 |   3250.000 |        1 | 0.000015 | 0.000015 |
|   3250.000 |   3300.000 |      760 | 0.011099 | 0.011114 |
|   3300.000 |   3350.000 |     4384 | 0.064024 | 0.075138 |
|   3350.000 |   3400.000 |     9126 | 0.133277 | 0.208415 |
|   3400.000 |   3450.000 |    11231 | 0.164018 | 0.372433 |
|   3450.000 |   3500.000 |    11566 | 0.168911 | 0.541344 |
|   3500.000 |   3550.000 |    11477 | 0.167611 | 0.708955 |
|   3550.000 |   3600.000 |    10704 | 0.156322 | 0.865277 |
|   3600.000 |   3650.000 |     6779 | 0.099001 | 0.964278 |
|   3650.000 |   3700.000 |     2337 | 0.034130 | 0.998408 |
|   3700.000 |   3750.000 |      109 | 0.001592 | 1.000000 |
|   3750.000 |   3800.000 |        0 | 0.000000 | 1.000000 |
|   3800.000 |   3850.000 |        0 | 0.000000 | 1.000000 |
|   3850.000 |   3900.000 |        0 | 0.000000 | 1.000000 |
+------------+------------+----------+----------+----------+

+----------------------------------------------------------+
| HISTOGRAM Croissant done per hour                        |
+----------------------------------------------------------+
| STATISTIC                                                |
+----------------------------------------------------------+
|  Min = 22296.3                 Max = 81787.3             |
|  Number of records = 68474                               |
|  Average value = 42026.7                                 |
|  Standard deviation = 13207.5                            |
+----------------------------------------------------------+
|    from    |     to     |     n    |   rel    |   sum    |
+------------+------------+----------+----------+----------+
|      0.000 |   3600.000 |        0 | 0.000000 | 0.000000 |
|   3600.000 |   7200.000 |        0 | 0.000000 | 0.000000 |
|   7200.000 |  10800.000 |        0 | 0.000000 | 0.000000 |
|  10800.000 |  14400.000 |        0 | 0.000000 | 0.000000 |
|  14400.000 |  18000.000 |        0 | 0.000000 | 0.000000 |
|  18000.000 |  21600.000 |        0 | 0.000000 | 0.000000 |
|  21600.000 |  25200.000 |     4982 | 0.072758 | 0.072758 |
|  25200.000 |  28800.000 |     6496 | 0.094868 | 0.167626 |
|  28800.000 |  32400.000 |     6354 | 0.092794 | 0.260420 |
|  32400.000 |  36000.000 |     7203 | 0.105193 | 0.365613 |
|  36000.000 |  39600.000 |     7186 | 0.104945 | 0.470558 |
|  39600.000 |  43200.000 |     7181 | 0.104872 | 0.575430 |
|  43200.000 |  46800.000 |     7180 | 0.104857 | 0.680287 |
|  46800.000 |  50400.000 |     7187 | 0.104960 | 0.785247 |
|  50400.000 |  54000.000 |     5957 | 0.086997 | 0.872243 |
|  54000.000 |  57600.000 |     1256 | 0.018343 | 0.890586 |
|  57600.000 |  61200.000 |     1494 | 0.021819 | 0.912405 |
|  61200.000 |  64800.000 |      788 | 0.011508 | 0.923913 |
|  64800.000 |  68400.000 |     1446 | 0.021118 | 0.945030 |
|  68400.000 |  72000.000 |      774 | 0.011304 | 0.956334 |
|  72000.000 |  75600.000 |     1079 | 0.015758 | 0.972092 |
|  75600.000 |  79200.000 |      835 | 0.012194 | 0.984286 |
|  79200.000 |  82800.000 |     1076 | 0.015714 | 1.000000 |
|  82800.000 |  86400.000 |        0 | 0.000000 | 1.000000 |
+------------+------------+----------+----------+----------+

