+----------------------------------------------------------+
| HISTOGRAM Incoming orders                                |
+----------------------------------------------------------+
| STATISTIC                                                |
+----------------------------------------------------------+
|  Min = 0                       Max = 78826.1             |
|  Number of records = 40                                  |
|  Average value = 32185.8                                 |
+----------------------------------------------------------+
|    from    |     to     |     n    |   rel    |   sum    |
+------------+------------+----------+----------+----------+
|      0.000 |   3600.000 |        5 | 0.125000 | 0.125000 |
|   3600.000 |   7200.000 |        3 | 0.075000 | 0.200000 |
|   7200.000 |  10800.000 |        4 | 0.100000 | 0.300000 |
|  10800.000 |  14400.000 |        3 | 0.075000 | 0.375000 |
|  14400.000 |  18000.000 |        2 | 0.050000 | 0.425000 |
|  18000.000 |  21600.000 |        2 | 0.050000 | 0.475000 |
|  21600.000 |  25200.000 |        1 | 0.025000 | 0.500000 |
|  25200.000 |  28800.000 |        1 | 0.025000 | 0.525000 |
|  28800.000 |  32400.000 |        1 | 0.025000 | 0.550000 |
|  32400.000 |  36000.000 |        1 | 0.025000 | 0.575000 |
|  36000.000 |  39600.000 |        2 | 0.050000 | 0.625000 |
|  39600.000 |  43200.000 |        1 | 0.025000 | 0.650000 |
|  43200.000 |  46800.000 |        1 | 0.025000 | 0.675000 |
|  46800.000 |  50400.000 |        1 | 0.025000 | 0.700000 |
|  50400.000 |  54000.000 |        0 | 0.000000 | 0.700000 |
|  54000.000 |  57600.000 |        2 | 0.050000 | 0.750000 |
|  57600.000 |  61200.000 |        1 | 0.025000 | 0.775000 |
|  61200.000 |  64800.000 |        2 | 0.050000 | 0.825000 |
|  64800.000 |  68400.000 |        2 | 0.050000 | 0.875000 |
|  68400.000 |  72000.000 |        1 | 0.025000 | 0.900000 |
|  72000.000 |  75600.000 |        2 | 0.050000 | 0.950000 |
|  75600.000 |  79200.000 |        2 | 0.050000 | 1.000000 |
|  79200.000 |  82800.000 |        0 | 0.000000 | 1.000000 |
|  82800.000 |  86400.000 |        0 | 0.000000 | 1.000000 |
+------------+------------+----------+----------+----------+

+----------------------------------------------------------+
| FACILITY Mixer                                           |
+----------------------------------------------------------+
|  Status = not BUSY                                       |
|  Time interval = 0 - 86400                               |
|  Number of requests = 41                                 |
|  Average utilization = 0.654911                          |
+----------------------------------------------------------+
  Input queue 'Mixer.Q1'
+----------------------------------------------------------+
| QUEUE Q1                                                 |
+----------------------------------------------------------+
|  Time interval = 0 - 86400                               |
|  Incoming  25                                            |
|  Outcoming  25                                           |
|  Current length = 0                                      |
|  Maximal length = 17                                     |
|  Average length = 4.45375                                |
|  Minimal time = 20.4823                                  |
|  Maximal time = 28518.3                                  |
|  Average time = 15392.2                                  |
+----------------------------------------------------------+

+----------------------------------------------------------+
| HISTOGRAM MixHist                                        |
+----------------------------------------------------------+
| STATISTIC                                                |
+----------------------------------------------------------+
|  Min = 915.377                 Max = 1023.51             |
|  Number of records = 40                                  |
|  Average value = 964.609                                 |
+----------------------------------------------------------+
|    from    |     to     |     n    |   rel    |   sum    |
+------------+------------+----------+----------+----------+
|      0.000 |    100.000 |        0 | 0.000000 | 0.000000 |
|    100.000 |    200.000 |        0 | 0.000000 | 0.000000 |
|    200.000 |    300.000 |        0 | 0.000000 | 0.000000 |
|    300.000 |    400.000 |        0 | 0.000000 | 0.000000 |
|    400.000 |    500.000 |        0 | 0.000000 | 0.000000 |
|    500.000 |    600.000 |        0 | 0.000000 | 0.000000 |
|    600.000 |    700.000 |        0 | 0.000000 | 0.000000 |
|    700.000 |    800.000 |        0 | 0.000000 | 0.000000 |
|    800.000 |    900.000 |        0 | 0.000000 | 0.000000 |
|    900.000 |   1000.000 |       38 | 0.950000 | 0.950000 |
|   1000.000 |   1100.000 |        2 | 0.050000 | 1.000000 |
|   1100.000 |   1200.000 |        0 | 0.000000 | 1.000000 |
|   1200.000 |   1300.000 |        0 | 0.000000 | 1.000000 |
|   1300.000 |   1400.000 |        0 | 0.000000 | 1.000000 |
|   1400.000 |   1500.000 |        0 | 0.000000 | 1.000000 |
|   1500.000 |   1600.000 |        0 | 0.000000 | 1.000000 |
|   1600.000 |   1700.000 |        0 | 0.000000 | 1.000000 |
|   1700.000 |   1800.000 |        0 | 0.000000 | 1.000000 |
|   1800.000 |   1900.000 |        0 | 0.000000 | 1.000000 |
|   1900.000 |   2000.000 |        0 | 0.000000 | 1.000000 |
+------------+------------+----------+----------+----------+

+----------------------------------------------------------+
| FACILITY Divider                                         |
+----------------------------------------------------------+
|  Status = not BUSY                                       |
|  Time interval = 0 - 86400                               |
|  Number of requests = 40                                 |
|  Average utilization = 0.405347                          |
+----------------------------------------------------------+
  Input queue 'Divider.Q1'
+----------------------------------------------------------+
| QUEUE Q1                                                 |
+----------------------------------------------------------+
|  Time interval = 0 - 86400                               |
|  Incoming  16                                            |
|  Outcoming  16                                           |
|  Current length = 0                                      |
|  Maximal length = 4                                      |
|  Average length = 0.499657                               |
|  Minimal time = 598.896                                  |
|  Maximal time = 4758.9                                   |
|  Average time = 2698.15                                  |
+----------------------------------------------------------+

+----------------------------------------------------------+
| STORE ShapingMachine                                     |
+----------------------------------------------------------+
|  Capacity = 5  (0 used, 5 free)                          |
|  Time interval = 0 - 86400                               |
|  Number of Enter operations = 69890                      |
|  Minimal used capacity = 0                               |
|  Maximal used capacity = 5                               |
|  Average used capacity = 1.62112                         |
+----------------------------------------------------------+
  Input queue 'ShapingMachine.Q'
+----------------------------------------------------------+
| QUEUE Q                                                  |
+----------------------------------------------------------+
|  Time interval = 0 - 86400                               |
|  Incoming  36220                                         |
|  Outcoming  36220                                        |
|  Current length = 0                                      |
|  Maximal length = 28                                     |
|  Average length = 0.7339                                 |
|  Minimal time = 0.000105721                              |
|  Maximal time = 11.7327                                  |
|  Average time = 1.75066                                  |
|  Standard deviation = 1.61501                            |
+----------------------------------------------------------+

+----------------------------------------------------------+
| STORE Furnace                                            |
+----------------------------------------------------------+
|  Capacity = 3000  (0 used, 3000 free)                    |
|  Time interval = 0 - 86400                               |
|  Number of Enter operations = 69890                      |
|  Minimal used capacity = 0                               |
|  Maximal used capacity = 1549                            |
|  Average used capacity = 606.677                         |
+----------------------------------------------------------+

+----------------------------------------------------------+
| HISTOGRAM CroissantTime                                  |
+----------------------------------------------------------+
| STATISTIC                                                |
+----------------------------------------------------------+
|  Min = 3250.57                 Max = 3731.92             |
|  Number of records = 69890                               |
|  Average value = 3487.27                                 |
|  Standard deviation = 94.8396                            |
+----------------------------------------------------------+
|    from    |     to     |     n    |   rel    |   sum    |
+------------+------------+----------+----------+----------+
|   3200.000 |   3250.000 |        0 | 0.000000 | 0.000000 |
|   3250.000 |   3300.000 |      806 | 0.011532 | 0.011532 |
|   3300.000 |   3350.000 |     4604 | 0.065875 | 0.077407 |
|   3350.000 |   3400.000 |     9166 | 0.131149 | 0.208556 |
|   3400.000 |   3450.000 |    11733 | 0.167878 | 0.376434 |
|   3450.000 |   3500.000 |    11814 | 0.169037 | 0.545471 |
|   3500.000 |   3550.000 |    11472 | 0.164144 | 0.709615 |
|   3550.000 |   3600.000 |    10814 | 0.154729 | 0.864344 |
|   3600.000 |   3650.000 |     6994 | 0.100072 | 0.964416 |
|   3650.000 |   3700.000 |     2363 | 0.033810 | 0.998226 |
|   3700.000 |   3750.000 |      124 | 0.001774 | 1.000000 |
|   3750.000 |   3800.000 |        0 | 0.000000 | 1.000000 |
|   3800.000 |   3850.000 |        0 | 0.000000 | 1.000000 |
|   3850.000 |   3900.000 |        0 | 0.000000 | 1.000000 |
+------------+------------+----------+----------+----------+

+----------------------------------------------------------+
| HISTOGRAM Croissant done per hour                        |
+----------------------------------------------------------+
| STATISTIC                                                |
+----------------------------------------------------------+
|  Min = 22266.1                 Max = 84088.5             |
|  Number of records = 69890                               |
|  Average value = 42982.6                                 |
|  Standard deviation = 14321.8                            |
+----------------------------------------------------------+
|    from    |     to     |     n    |   rel    |   sum    |
+------------+------------+----------+----------+----------+
|      0.000 |   3600.000 |        0 | 0.000000 | 0.000000 |
|   3600.000 |   7200.000 |        0 | 0.000000 | 0.000000 |
|   7200.000 |  10800.000 |        0 | 0.000000 | 0.000000 |
|  10800.000 |  14400.000 |        0 | 0.000000 | 0.000000 |
|  14400.000 |  18000.000 |        0 | 0.000000 | 0.000000 |
|  18000.000 |  21600.000 |        0 | 0.000000 | 0.000000 |
|  21600.000 |  25200.000 |     5085 | 0.072757 | 0.072757 |
|  25200.000 |  28800.000 |     6384 | 0.091344 | 0.164101 |
|  28800.000 |  32400.000 |     6266 | 0.089655 | 0.253756 |
|  32400.000 |  36000.000 |     6877 | 0.098397 | 0.352153 |
|  36000.000 |  39600.000 |     7220 | 0.103305 | 0.455459 |
|  39600.000 |  43200.000 |     7156 | 0.102389 | 0.557848 |
|  43200.000 |  46800.000 |     7187 | 0.102833 | 0.660681 |
|  46800.000 |  50400.000 |     7216 | 0.103248 | 0.763929 |
|  50400.000 |  54000.000 |     7168 | 0.102561 | 0.866490 |
|  54000.000 |  57600.000 |      423 | 0.006052 | 0.872543 |
|  57600.000 |  61200.000 |     1519 | 0.021734 | 0.894277 |
|  61200.000 |  64800.000 |      633 | 0.009057 | 0.903334 |
|  64800.000 |  68400.000 |     1125 | 0.016097 | 0.919431 |
|  68400.000 |  72000.000 |     1112 | 0.015911 | 0.935341 |
|  72000.000 |  75600.000 |     1068 | 0.015281 | 0.950622 |
|  75600.000 |  79200.000 |     1566 | 0.022407 | 0.973029 |
|  79200.000 |  82800.000 |      659 | 0.009429 | 0.982458 |
|  82800.000 |  86400.000 |     1226 | 0.017542 | 1.000000 |
+------------+------------+----------+----------+----------+

